Holly Milazzo Data Analysis Portfolio - Manuscript/Report Template for a Data Analysis Project
…
# Group by country
grouped_data <- group_by(count_data, country)

# Calculate percentage within each group
grouped_data <- mutate(grouped_data, percentage = n / sum(n) * 100)

# Ungroup the data
percentage_data <- ungroup(grouped_data)

# Show percentage_data
percentage_data

# A tibble: 22 × 4
   country type        n percentage
   <fct>   <fct>   <int>      <dbl>
 1 Canada  Movie     122      67.4 
 2 Canada  TV Show    59      32.6 
 3 Egypt   Movie      92      86.8 
 4 Egypt   TV Show    14      13.2 
 5 France  Movie      75      60.5 
 6 France  TV Show    49      39.5 
 7 India   Movie     893      91.9 
 8 India   TV Show    79       8.13
 9 Japan   Movie      76      31.0 
10 Japan   TV Show   169      69.0 
# ℹ 12 more rows
…
