Holly Milazzo Data Analysis Portfolio - Presentation Exercise
…
# Group by country
grouped_data <- group_by(count_data, country)

# Calculate percentage within each group
grouped_data <- mutate(grouped_data, percentage = n / sum(n) * 100)

# Ungroup the data
percentage_data <- ungroup(grouped_data)

# Show percentage_data
percentage_data

# A tibble: 847 × 4
   country                                             type        n percentage
   <chr>                                               <fct>   <int>      <dbl>
 1 , France, Algeria                                   Movie       1      100  
 2 , South Korea                                       TV Show     1      100  
 3 Argentina                                           Movie      38       67.9
 4 Argentina                                           TV Show    18       32.1
 5 Argentina, Brazil, France, Poland, Germany, Denmark Movie       1      100  
 6 Argentina, Chile                                    Movie       2      100  
 7 Argentina, Chile, Peru                              Movie       1      100  
 8 Argentina, France                                   Movie       1      100  
 9 Argentina, France, United States, Germany, Qatar    Movie       1      100  
10 Argentina, Italy                                    Movie       1      100  
# ℹ 837 more rows
…
