Holly Milazzo Data Analysis Portfolio - Data Exercise - Assignment #4
…
I’m going to create two new columns for ‘book’ and ‘line’ from the dataset by first grouping the data by book,and using ‘mutate’ to transform the grouped books into a line number within each book. Basically numbering the lines within the books. We can then ungroup the dataset as we have our lines:

original_books <- austen_books() %>%
  group_by(book) %>%
  mutate(line = row_number()) %>%
  ungroup()

original_books

# A tibble: 73,422 × 3
   text                    book                 line
   <chr>                   <fct>               <int>
 1 "SENSE AND SENSIBILITY" Sense & Sensibility     1
 2 ""                      Sense & Sensibility     2
 3 "by Jane Austen"        Sense & Sensibility     3
 4 ""                      Sense & Sensibility     4
 5 "(1811)"                Sense & Sensibility     5
 6 ""                      Sense & Sensibility     6
 7 ""                      Sense & Sensibility     7
 8 ""                      Sense & Sensibility     8
 9 ""                      Sense & Sensibility     9
10 "CHAPTER 1"             Sense & Sensibility    10
# ℹ 73,412 more rows

Using the ‘unnest_tokens’ function from tidytext we can convert the text into “tokens” or individual words:

tidy_books <- original_books %>%
  unnest_tokens(word, text)

tidy_books

# A tibble: 725,055 × 3
   book                 line word       
   <fct>               <int> <chr>      
 1 Sense & Sensibility     1 sense      
 2 Sense & Sensibility     1 and        
 3 Sense & Sensibility     1 sensibility
 4 Sense & Sensibility     3 by         
 5 Sense & Sensibility     3 jane       
 6 Sense & Sensibility     3 austen     
 7 Sense & Sensibility     5 1811       
 8 Sense & Sensibility    10 chapter    
 9 Sense & Sensibility    10 1          
10 Sense & Sensibility    13 the        
# ℹ 725,045 more rows
…
Now to perform some exploratory analysis with the data set.

let’s install ‘ggplot2’ for our visualizations

library(ggplot2)

Warning: package 'ggplot2' was built under R version 4.3.3

In this resource example, we can assign sentiment (positive, negative, and neutral) to the words used within the novels to perhaps get an overall idea of the emotion/feelings/theme within the novels - for this we need the ‘bing’ package for lexicon/sentiment:

library(tidyr)
get_sentiments("bing")

# A tibble: 6,786 × 2
   word        sentiment
   <chr>       <chr>    
 1 2-faces     negative 
 2 abnormal    negative 
 3 abolish     negative 
 4 abominable  negative 
 5 abominably  negative 
 6 abominate   negative 
 7 abomination negative 
 8 abort       negative 
 9 aborted     negative 
10 aborts      negative 
# ℹ 6,776 more rows

Applying the lexicon/sentiment dataset to the text dataset using an inner join and creating new columns to represent the count of negative/positive and sentiment.

janeaustensentiment <- tidy_books %>%
  inner_join(get_sentiments("bing"), by = "word", relationship = "many-to-many") %>% 
  count(book, index = line %/% 80, sentiment) %>% 
  pivot_wider(names_from = sentiment, values_from = n, values_fill = 0) %>% 
  mutate(sentiment = positive - negative)

janeaustensentiment

# A tibble: 920 × 5
   book                index negative positive sentiment
   <fct>               <dbl>    <int>    <int>     <int>
 1 Sense & Sensibility     0       16       32        16
 2 Sense & Sensibility     1       19       53        34
 3 Sense & Sensibility     2       12       31        19
 4 Sense & Sensibility     3       15       31        16
 5 Sense & Sensibility     4       16       34        18
 6 Sense & Sensibility     5       16       51        35
 7 Sense & Sensibility     6       24       40        16
 8 Sense & Sensibility     7       23       51        28
 9 Sense & Sensibility     8       30       40        10
10 Sense & Sensibility     9       15       19         4
# ℹ 910 more rows
…
